{
  
  "pools": [
    {
      "rolls": 1,
      "entries": [
        {
          "type": "minecraft:item",
          "conditions": [
            {
              "condition": "random_chance",
              "chance": 0.5
            }
          ],
          "name": "minecraft:apple"
        }
      ]
    }
   
  ]
}